…
The following code loads the libraries and our data. When loading the data, our independent variables mowing height (`MowHT`) and mowing frequency (`MowFreq`) are parsed as continous variables. We need these variables to be factors since factorial anova requires one continous variable and two or more categorical variables. Using `col_types`, we make sure `readr` converts these variables to the correct type.
```
library(tidyverse)
library(gplots)

mow <- read_csv(file = "MOW.csv",col_names = TRUE, col_type=cols(
  MowHT = col_factor(),
  MowFreq = col_factor()
))
```

When looking at our data, notice that `readr` automatically places our data in a tibble and our independent variables have the correct type. We also see that our data has 36 observations (plots of land) and the values of our independent variables and our response variable, vegetation height (`VegHT`), are recorded for each observation. 
```
mow
# A tibble: 36 x 3
#   MowHT MowFreq VegHT
#   <fct> <fct>   <dbl>
# 1   5     1        19.3
# 2   5     1        17.3
# 3   5     1        16.7
# 4   5     1        15  
# 5   10    1        16  
# 6   10    1        15.6
# 7   10    1        16.9
# 8   10    1        15  
# 9   20    1        16.7
# 10  20    1        17.9
# ... with 26 more rows
```
…
